Year,CPI-AllUrbanConsumersx3,CPI-AllUrbanConsumers,UnemploymentRate,Inflation,Federal Funds Effective Rate,Minimum Wage Rates,Poverty Rates,Gross Domestic Product,Gross Domestic Income,Government Expenditures,Personal Income,Disposable Personal Income,Foreign Transactions,Housing Price Index (All-Transactions Indexes),Palma Ratio calculated from WID,Gini Index (Census)
1960-Q1,88.19,29.4,5.97,0,3.93,$1.00,22.2,0.8,542.123,144.2,416.7,2270,26.1,,,
1960-Q2,88.72,29.57,5.27,0.68,3.7,$1.00,22.2,1.4,543.395,147.4,421.7,2284.6,26.9,,,
1960-Q3,88.77,29.59,5.13,0,2.94,$1.00,22.2,1.7,545.289,150.5,424.4,2289,27.6,,,
1960-Q4,89.34,29.78,5.67,0.68,2.3,$1.00,22.2,1.8,543.937,153.8,425.8,2288,27.6,,,
1961-Q1,89.52,29.84,7.83,0,2,$1.00,21.9,0.5,546.221,157.3,430.2,2309.7,27.6,,,
1961-Q2,89.49,29.83,6.97,0,1.73,$1.00,21.9,0.8,556.72,160.7,436.4,2344.7,26.6,,,
1961-Q3,89.84,29.95,6.3,0.67,1.68,$1.05,21.9,0.8,567.148,162.7,443.4,2375.9,27.8,,,
1961-Q4,89.97,29.99,5.63,0,2.4,$1.15,21.9,0.9,582.407,166.3,452.3,2422.3,28.4,,,
1962-Q1,90.32,30.11,6.47,0.33,2.46,$1.15,21,2,592.505,170.9,459.3,2446.1,28.3,,3.109302175,
1962-Q2,90.66,30.22,5.5,0.33,2.61,$1.15,21,1.1,600.073,173.1,466.8,2472.5,29.7,,3.109302175,
1962-Q3,90.92,30.31,5.17,0.66,2.85,$1.15,21,0.9,607.426,175.6,471.5,2485.8,29.6,,3.109302175,
1962-Q4,91.14,30.38,5.03,0,2.92,$1.15,21,1,615.801,178.2,477.8,2507.9,28.7,,3.109302175,
1963-Q1,91.43,30.48,6.6,0.33,2.97,$1.15,19.5,2,623.852,179.4,483.2,2529.7,29.2,,3.151753601,
1963-Q2,91.6,30.53,5.77,0.33,2.96,$1.15,19.5,0.4,634.045,180.4,488.1,2553,31.4,,3.151753601,
1963-Q3,92.16,30.72,5.2,0.33,3.33,$1.18,19.5,0.4,643.452,184.9,495.2,2580.9,31.2,,3.151753601,
1963-Q4,92.41,30.8,5.1,0.65,3.45,$1.25,19.5,2.6,654.311,186.8,504.6,2622.9,32.5,,3.151753601,
1964-Q1,92.79,30.93,6.17,0,3.46,$1.25,19,1.5,667.298,190.1,514.1,2674.3,34.2,,3.057155694,
1964-Q2,92.94,30.98,5.33,0.32,3.49,$1.25,19,1.2,678.727,193,523.6,2746.4,34,,3.057155694,
1964-Q3,93.15,31.05,4.73,0.32,3.46,$1.25,19,2,691.099,193.3,533.2,2782.2,35.4,,3.057155694,
1964-Q4,93.58,31.19,4.53,0.32,3.58,$1.25,19,1.7,700.907,193,541.9,2813.8,36.5,,3.057155694,
1965-Q1,93.87,31.29,5.43,0.32,3.97,$1.25,17.3,1.8,720.153,196.2,553,2847,33,,3.039593495,
1965-Q2,94.47,31.49,4.77,0.96,3.52,$1.25,17.3,1.9,732.682,200.1,562.6,2879.1,38.4,,3.039593495,
1965-Q3,94.75,31.58,4.17,0,3.57,$1.25,17.3,1.8,745.904,209,576.9,2957.8,37.6,,3.039593495,
1965-Q4,95.25,31.75,3.73,0.64,3.62,$1.25,17.3,2.7,767.461,214.3,590.2,3017.4,39.7,,3.039593495,
1966-Q1,96.14,32.05,4.2,0.94,3.67,$1.25,14.7,2.5,789.33,221.1,602.9,3047.2,39.4,,3.20066838,
1966-Q2,97.01,32.34,3.97,0.93,3.72,$1.25,14.7,3.7,801.087,227.5,612.8,3055.3,40.9,,3.20066838,
1966-Q3,97.85,32.62,3.6,0.93,3.77,$1.25,14.7,3.6,814.397,235.6,626,3092.6,40.9,,3.20066838,
1966-Q4,98.65,32.88,3.37,0.61,3.82,$1.25,14.7,3.3,828.504,243.8,639.6,3128.9,42.6,,3.20066838,
1967-Q1,98.9,32.97,4.1,0.3,3.87,$1.35,14.2,1.7,836.797,255.4,650.5,3176,43.9,,3.010904196,0.362
1967-Q2,99.5,33.17,3.77,0.9,3.92,$1.40,14.2,2.4,845.68,256.9,657.6,3201.2,43.2,,3.010904196,0.362
1967-Q3,100.5,33.5,3.83,0.9,3.97,$1.40,14.2,3.6,862.762,264.2,671.6,3231.7,42.8,,3.010904196,0.362
1967-Q4,101.6,33.87,3.67,0.9,4.02,$1.40,14.2,4.5,881.144,268.4,683.2,3255.3,43.9,,3.010904196,0.362
1968-Q1,102.6,34.2,4,1.17,4.07,$1.53,12.8,4.4,904.131,277.1,702.5,3309.6,45.5,,3.244388152,0.351
1968-Q2,103.6,34.53,3.53,1.16,4.12,$1.60,12.8,4.6,927.464,286.7,722.4,3364,47.2,,3.244388152,0.351
1968-Q3,105,35,3.6,1.16,4.17,$1.60,12.8,3.9,949.278,292.2,741.3,3374.8,49.9,,3.244388152,0.351
1968-Q4,106.3,35.43,3.2,1.13,4.22,$1.60,12.8,5.7,969.186,299,757.5,3400.9,49.1,,3.244388152,0.351
1969-Q1,107.6,35.87,3.63,1.68,4.27,$1.60,12.1,4.1,988.736,300.6,772.4,3409.3,44,,2.889122226,0.353
1969-Q2,109.3,36.43,3.4,1.38,4.32,$1.60,12.1,5.4,1007.398,307.1,790.6,3442.7,53.8,,2.889122226,0.353
1969-Q3,110.8,36.93,3.67,1.36,4.37,$1.60,12.1,5.8,1028.459,313.9,811.6,3512.9,53.6,,2.889122226,0.353
1969-Q4,112.5,37.5,3.33,1.61,4.42,$1.60,12.1,5.1,1039.539,318.2,826.8,3539.7,56.3,,2.889122226,0.353
1970-Q1,114.3,38.1,4.5,1.33,8.57,$1.60,12.6,5.6,1047.063,325.9,841.7,3576.9,57,,3.105723962,0.357
1970-Q2,115.9,38.63,4.67,1.57,7.88,$1.60,12.6,5.9,1061.858,339,860,3621,60.4,,3.105723962,0.357
1970-Q3,117.1,39.03,5.17,1.03,6.7,$1.60,12.6,3.3,1079.478,346.4,874.7,3678.9,60.5,,3.105723962,0.357
1970-Q4,118.8,39.6,5.4,1.53,5.57,$1.60,12.6,5.3,1083.461,354.3,883.7,3670.1,60.9,,3.105723962,0.357
1971-Q1,119.8,39.93,6.5,0.5,3.86,$1.60,12.5,6.2,1121.846,358.6,903.7,3743.3,63.2,,2.68413992,0.359
1971-Q2,120.9,40.3,5.83,1.49,4.56,$1.60,12.5,5.5,1143.993,373.2,927.1,3797.8,62.9,,2.68413992,0.359
1971-Q3,122.1,40.7,5.97,0.5,5.47,$1.60,12.5,4.1,1165.45,377.1,941.1,3817.7,65.7,,2.68413992,0.359
1971-Q4,123,41,5.53,0.74,4.75,$1.60,12.5,3.4,1190.034,383.3,959.3,3862.2,60,,2.68413992,0.359
1972-Q1,124,41.33,6.33,0.73,3.54,$1.60,11.9,6.6,1225.633,399.4,986.5,3879.9,68.6,,3.032693258,0.362
1972-Q2,124.8,41.6,5.6,0.72,4.3,$1.60,11.9,2.5,1249.074,403.9,1004.2,3920.2,67.2,,3.032693258,0.362
1972-Q3,125.8,41.93,5.6,0.96,4.74,$1.60,11.9,3.7,1281.68,404.9,1030.1,3996.4,71.5,,3.032693258,0.362
1972-Q4,127.1,42.37,4.93,0.96,5.14,$1.60,11.9,4.6,1331.427,419.3,1077,4156.6,76.1,,3.032693258,0.362
1973-Q1,129.1,43.03,5.43,1.87,6.54,$1.60,11.1,5.2,1370.819,426.9,1095.1,4188.1,84,,2.864143451,0.36
1973-Q2,131.8,43.93,4.87,2.06,7.82,$1.60,11.1,6.8,1399.51,439.1,1124.9,4223.5,91.9,,2.864143451,0.36
1973-Q3,134.4,44.8,4.8,2.26,10.56,$1.60,11.1,7.9,1431.358,437.6,1152.5,4242.6,97.6,,2.864143451,0.36
1973-Q4,137.8,45.93,4.47,2.19,10,$1.60,11.1,7.1,1475.233,451,1190.7,4289,107.6,,2.864143451,0.36
1974-Q1,141.9,47.3,5.6,3.43,9.32,$1.60,11.2,8.3,1491.147,465.6,1206.8,4217.8,116.7,,2.581783256,0.354
1974-Q2,145.7,48.57,5.07,2.49,11.25,$1.87,11.2,9.2,1520.366,477.3,1232.9,4178.5,126.7,,2.581783256,0.354
1974-Q3,149.8,49.93,5.57,3.23,12.09,$2.00,11.2,12.9,1556.457,507,1269.1,4182.3,126.6,,2.581783256,0.354
1974-Q4,154.4,51.47,6.13,2.55,9.35,$2.00,11.2,12.7,1583.155,521.2,1298.5,4176.7,136.6,,2.581783256,0.354
1975-Q1,157.7,52.57,9.07,1.54,6.3,$2.10,12.3,9.4,1600.723,550.1,1318.4,4170.5,141.4,59.83,2.648619273,0.359
1975-Q2,159.6,53.2,8.67,1.7,5.42,$2.10,12.3,5.9,1637.971,571.9,1350,4363.4,136.8,61.13,2.648619273,0.359
1975-Q3,162.8,54.27,8.33,1.85,6.16,$2.10,12.3,7.3,1700.815,583.5,1386.5,4299.9,134.1,61.25,2.648619273,0.359
1975-Q4,165.8,55.27,7.8,1.64,5.41,$2.10,12.3,6.9,1746.705,600,1422.7,4333.5,142.5,62.35,2.648619273,0.359
1976-Q1,167.7,55.9,8.53,0.72,4.83,$2.30,11.8,4.5,1801.802,609.6,1456.1,4385.9,143.6,62.85,2.464245014,0.359
1976-Q2,169.2,56.4,7.4,1.6,5.2,$2.30,11.8,4,1831.401,606.9,1481.2,4410.8,146.6,65.51,2.464245014,0.359
1976-Q3,171.9,57.3,7.6,1.41,5.28,$2.30,11.8,5.2,1869.194,619.6,1518.4,4445.2,151.8,66.57,2.464245014,0.359
1976-Q4,174.4,58.13,7.33,1.03,4.87,$2.30,11.8,7,1908.64,630.2,1554.9,4473.4,156.1,67.26,2.464245014,0.359
1977-Q1,177.6,59.2,8.23,2.23,4.66,$2.30,11.6,6.6,1960.906,645.4,1588.8,4483.5,155.4,69.43,2.537901945,0.362
1977-Q2,180.7,60.23,6.93,2,5.16,$2.30,11.6,6.5,2035.208,657.4,1633,4525.6,161.9,72.65,2.537901945,0.362
1977-Q3,183.2,61.07,6.8,1.15,5.82,$2.30,11.6,5.6,2097.868,669,1677.7,4588.5,162.3,74.36,2.537901945,0.362
1977-Q4,185.9,61.97,6.3,1.14,6.51,$2.30,11.6,6.9,2155.534,688.8,1737.4,4676.2,157.8,77.21,2.537901945,0.362
1978-Q1,189.1,63.03,6.87,2.07,6.76,$2.65,11.4,6.7,2199.97,702.4,1778.1,4712.9,164.6,79.56,2.260203168,0.363
1978-Q2,193.4,64.47,5.83,2.82,7.28,$2.65,11.4,8.2,2309.586,721.9,1838.2,4762.7,186.2,82.75,2.260203168,0.363
1978-Q3,197.9,65.97,6,1.99,8.1,$2.65,11.4,7.2,2365.857,749.4,1892.6,4799.8,191.3,85.21,2.260203168,0.363
1978-Q4,202.5,67.5,5.57,1.8,9.58,$2.65,11.4,8.1,2437.684,767.1,1946,4831.4,205.4,87.46,2.260203168,0.363
1979-Q1,207.6,69.2,6.3,3.07,10.07,$2.90,11.7,7.7,2501.699,776.4,2005.4,4889.8,211.7,91.38,2.421339573,0.366
1979-Q2,214.2,71.4,5.57,3.53,10.18,$2.90,11.7,10,2550.233,799.7,2045.4,4845.6,220.9,94.37,2.421339573,0.366
1979-Q3,221.1,73.7,5.83,3.15,10.95,$2.90,11.7,8.6,2609.155,829.6,2110.9,4867.6,234.3,96.38,2.421339573,0.366
1979-Q4,228.1,76.03,5.63,2.78,13.58,$2.90,11.7,7.5,2668.001,851.7,2169,4876.2,253.7,98.29,2.421339573,0.366
1980-Q1,237.1,79.03,6.77,4.36,15.05,$3.10,13,9,2721.73,892.9,2231.9,4893.1,268.5,100,2.404985675,0.367
1980-Q2,245.1,81.7,7.2,3.21,12.69,$3.10,13,9.8,2741.396,922.8,2269.4,4850.1,277.4,101.58,2.404985675,0.367
1980-Q3,249.7,83.23,7.57,1.57,9.84,$3.10,13,9.2,2823.711,956.1,2348.5,4904.5,284.7,104.49,2.404985675,0.367
1980-Q4,256.7,85.57,7.03,2.72,15.85,$3.10,13,11,2964.677,970.6,2444.7,4972.1,292.5,104.78,2.404985675,0.367
1981-Q1,263.8,87.93,7.97,2.52,16.57,$3.35,14,11,3064.614,1022.6,2508.9,4965.1,305.5,105.32,2.291641024,0.373
1981-Q2,269.3,89.77,7.27,2.36,17.78,$3.35,14,7.7,3126.669,1037.4,2559.8,4970.9,308.5,107.44,2.291641024,0.373
1981-Q3,276.8,92.27,7.27,2.84,17.58,$3.35,14,8,3231.198,1063.6,2659.1,5078.1,302.3,109.24,2.291641024,0.373
1981-Q4,281.3,93.77,7.9,0.85,13.59,$3.35,14,6.8,3253.338,1102.2,2692.7,5083.7,304.7,109.16,2.291641024,0.373
1982-Q1,283.8,94.6,9.5,0.53,14.23,$3.35,15,5.9,3272.026,1122.6,2727.8,5095.9,293.2,110.96,2.279240787,0.384
1982-Q2,287.9,95.97,9.37,2.62,14.51,$3.35,15,5.4,3326.545,1150.1,2772.3,5126.7,294.7,111.9,2.279240787,0.384
1982-Q3,292.9,97.63,9.7,0.93,11.01,$3.35,15,5.7,3360.628,1185.9,2812.5,5151.3,279.6,110.84,2.279240787,0.384
1982-Q4,293.8,97.93,10.27,-0.3,9.29,$3.35,15,4.1,3380.562,1222.3,2853.8,5167.5,265.3,112.23,2.279240787,0.384
1983-Q1,294,98,11.17,0.3,8.65,$3.35,15.2,3.2,3442.689,1245.6,2892.4,5216.2,270.7,114.24,2.20959171,0.389
1983-Q2,297.4,99.13,10,1.63,8.8,$3.35,15.2,3,3526.559,1255.6,2942.1,5252.4,272.5,115.44,2.20959171,0.389
1983-Q3,300.3,100.1,9.13,1.2,9.46,$3.35,15.2,4.3,3613.443,1289,3001.2,5331.2,278.2,116.4,2.20959171,0.389
1983-Q4,303.3,101.1,8.17,0.6,9.43,$3.35,15.2,3,3725.666,1299.5,3088.6,5449.9,286.6,117.05,2.20959171,0.389
1984-Q1,307.6,102.53,8.43,1.28,9.69,$3.35,14.4,4,3866.052,1320.8,3178.9,5558.8,293,118.83,2.094008327,0.389
1984-Q2,310.5,103.5,7.4,1.07,10.56,$3.35,14.4,3.6,3962.759,1349.9,3262.9,5651.1,302.2,120.38,2.094008327,0.389
1984-Q3,313.2,104.4,7.3,1.25,11.39,$3.35,14.4,3.7,4040.168,1380.1,3337.4,5725.7,305.7,121.49,2.094008327,0.389
1984-Q4,315.9,105.3,6.97,0.29,9.27,$3.35,14.4,2.8,4115.077,1423.8,3391.7,5772.5,308.6,122.48,2.094008327,0.389
1985-Q1,318.8,106.27,7.77,1.04,8.48,$3.35,14,4.2,4191.093,1451,3455.4,5757.4,306,124.22,2.125254569,0.394
1985-Q2,321.7,107.23,7.2,1.12,7.92,$3.35,14,2.4,4248.112,1483.5,3495.5,5869.5,304.1,126.1,2.125254569,0.394
1985-Q3,323.7,107.9,7.07,0.66,7.9,$3.35,14,2.7,4325.546,1514.9,3543.1,5851.1,297.3,128.06,2.125254569,0.394
1985-Q4,327,109,6.73,0.93,8.1,$3.35,14,2.1,4374.084,1538,3605.5,5913,305.4,129.48,2.125254569,0.394
1986-Q1,328.7,109.57,7.53,1.44,7.83,$3.35,13.6,2,4439.28,1557.8,3667.6,5990.8,313.4,131.97,2.105100667,0.397
1986-Q2,327.1,109.03,7.1,1.24,6.92,$3.35,13.6,1.4,4468.54,1583,3708.8,6067.4,315.1,134.72,2.105100667,0.397
1986-Q3,329.1,109.7,6.83,1.31,6.21,$3.35,13.6,1.9,4515.027,1625.3,3757.1,6106.1,320.5,136.77,2.105100667,0.397
1986-Q4,331.4,110.47,6.5,0.35,6.27,$3.35,13.6,2.4,4575.455,1625.4,3798.8,6115.4,335,138.87,2.105100667,0.397
1987-Q1,335.4,111.8,7.13,0.95,6.22,$3.35,13.4,2.3,4652.187,1646,3856,6171.7,336.5,141.63,2.195231295,0.399
1987-Q2,339.2,113.07,6.2,1.29,6.65,$3.35,13.4,2.7,4759.142,1671.6,3917.5,6114,355.4,143.81,2.195231295,0.399
1987-Q3,342.8,114.27,5.87,1.51,6.84,$3.35,13.4,3.1,4864.953,1686.7,3988.5,6223.4,371.9,145.44,2.195231295,0.399
1987-Q4,346,115.33,5.57,0.58,6.92,$3.35,13.4,3,4969.278,1720.3,4084.3,6307.3,392.1,146.36,2.195231295,0.399
1988-Q1,348.7,116.23,6.13,0.95,6.66,$3.35,13,3.1,5068.055,1734.5,4160.6,6399.9,418.7,148.67,2.298876839,0.402
1988-Q2,352.7,117.57,5.4,1.29,7.16,$3.35,13,4.1,5176.274,1750.1,4234.8,6465.8,439.5,151.62,2.298876839,0.402
1988-Q3,357,119,5.37,1.51,7.98,$3.35,13,5,5285.53,1762.3,4326.3,6528.3,453.6,153.18,2.298876839,0.402
1988-Q4,360.9,120.3,5.07,0.58,8.47,$3.35,13,3.7,5403.861,1810.9,4411.9,6589.8,466.6,154.61,2.298876839,0.402
1989-Q1,365,121.67,5.6,1.49,9.44,$3.35,12.8,3.9,5493.644,1844.7,4537.2,6664.9,485.2,156.4,2.307420417,0.408
1989-Q2,370.9,123.63,5.2,1.46,9.73,$3.35,12.8,4.4,5542.42,1882.4,4592.9,6645.2,507.2,158.56,2.307420417,0.408
1989-Q3,373.8,124.6,5.17,0.72,9.08,$3.35,12.8,3,5606.037,1914.6,4648.5,6689.4,509.4,161.92,2.307420417,0.408
1989-Q4,377.6,125.87,5.1,0.88,8.61,$3.35,12.8,2.8,5652.24,1946.3,4723.7,6746,515.4,163.27,2.307420417,0.408
1990-Q1,384.1,128.03,5.8,2.05,8.25,$3.35,13.5,4.4,5767.812,1998.2,4818.9,6797.8,538.2,164.18,2.318973308,0.406
1990-Q2,387.9,129.3,5.3,0.93,8.24,$3.80,13.5,4.6,5864.799,2033.1,4899.2,6845.1,545.9,164.85,2.318973308,0.406
1990-Q3,394.6,131.53,5.57,2.14,8.16,$3.80,13.5,3.5,5910.743,2059.9,4958.5,6842.7,555.1,165.84,2.318973308,0.406
1990-Q4,401.3,133.77,5.8,0.82,7.74,$3.80,13.5,3.1,5927.023,2130.5,4978.6,6784.3,568.2,165.2,2.318973308,0.406
1991-Q1,404.3,134.77,7.2,0.9,6.43,$3.80,14.2,3.9,5972.649,2069.8,4992.5,6801.3,573.2,166.57,2.310418604,0.406
1991-Q2,406.7,135.57,6.73,0.74,5.86,$4.25,14.2,2.9,6034.081,2147.8,5054.1,6851,590.7,167.7,2.310418604,0.406
1991-Q3,409.8,136.6,6.63,0.88,5.64,$4.25,14.2,3.1,6098.155,2209.8,5107.1,6879,600.6,167.99,2.310418604,0.406
1991-Q4,413.2,137.73,6.7,0.51,4.82,$4.25,14.2,2.3,6155.738,2239.2,5186,6936.2,615.2,170.35,2.310418604,0.406
1992-Q1,416,138.67,8.03,1.02,4.02,$4.25,14.8,1.6,6284.521,2294.8,5297.8,7075.8,625.3,171.67,2.372508847,0.413
1992-Q2,419.2,139.73,7.5,0.64,3.77,$4.25,14.8,2.4,6374.987,2326.6,5394.4,7146,626.2,171.64,2.372508847,0.413
1992-Q3,422.4,140.8,7.47,0.77,3.26,$4.25,14.8,1.9,6426.443,2355.7,5456.3,7179.1,639.4,173.6,2.372508847,0.413
1992-Q4,426.1,142.03,7.03,0.42,3.04,$4.25,14.8,2.8,6531.606,2379.8,5535,7211.8,641.4,174.47,2.372508847,0.413
1993-Q1,429.2,143.07,7.73,1.19,3.04,$4.25,15.1,2.4,6545.416,2383.9,5560.7,7238.8,643.6,174.54,2.3977489,0.436
1993-Q2,432.3,144.1,6.97,0.56,3,$4.25,15.1,2.4,6663.732,2398.1,5635.8,7261.2,653.1,176.2,2.3977489,0.436
1993-Q3,434.3,144.77,6.67,0.49,3.06,$4.25,15.1,2,6716.772,2423.5,5677.6,7267.5,650.9,177.62,2.3977489,0.436
1993-Q4,437.9,145.97,6.23,0.48,2.99,$4.25,15.1,2.4,6884.53,2445.5,5757.7,7318,671.6,179.09,2.3977489,0.436
1994-Q1,440.1,146.7,7.07,0.95,3.21,$4.25,14.5,2.1,6955.743,2429.9,5807.9,7366.3,681.2,180.22,2.4914852,0.436
1994-Q2,442.6,147.53,6.1,0.55,3.94,$4.25,14.5,1.9,7097.889,2460.3,5912.7,7440.5,707,181.31,2.4914852,0.436
1994-Q3,446.7,148.9,5.9,0.94,4.49,$4.25,14.5,2.1,7204.883,2508.2,5978.4,7483.9,736.9,182.06,2.4914852,0.436
1994-Q4,449.3,149.77,5.27,0.2,5.17,$4.25,14.5,2.3,7330.608,2544.7,6089.4,7591.3,758.6,181.9,2.4914852,0.436
1995-Q1,452.6,150.87,5.93,1.13,5.81,$4.25,13.8,2.3,7401.194,2582.4,6181.2,7656.2,781.6,182.86,2.516803638,0.433
1995-Q2,452.6,150.87,5.63,0.73,6.02,$4.25,13.8,2,7480.079,2610.5,6250.7,7677.9,798.9,185.85,2.516803638,0.433
1995-Q3,458.6,152.87,5.63,0.46,5.8,$4.25,13.8,1.8,7609.555,2598.8,6329.3,7748.3,831.4,188.72,2.516803638,0.433
1995-Q4,461.1,153.7,5.23,0.19,5.72,$4.25,13.8,1.9,7696.11,2615.4,6404.3,7793.5,839.4,190.19,2.516803638,0.433
1996-Q1,465.2,155.07,6.03,1.43,5.36,$4.25,13.7,1.9,7819.355,2670,6521,7867.3,847.9,192.34,2.566271513,0.437
1996-Q2,469.2,156.4,5.43,0.64,5.24,$4.25,13.7,1.6,7965.95,2695.2,6649.8,7939.5,859,192.67,2.566271513,0.437
1996-Q3,471.9,157.3,5.23,0.7,5.31,$4.25,13.7,2,8065.739,2701.8,6725.9,8003.8,859.6,193.53,2.566271513,0.437
1996-Q4,476,158.67,4.97,0.51,5.28,$4.75,13.7,1.7,8209.098,2720.9,6817.5,8046.4,903.8,195.04,2.566271513,0.437
1997-Q1,478.9,159.63,5.7,0.88,5.28,$4.75,13.3,1.8,8349.259,2740.5,6939.4,8123,918.4,196.66,2.615087945,0.44
1997-Q2,480,160,4.9,0.19,5.52,$4.75,13.3,2,8474.339,2741.6,7022.3,8195,954.5,198.31,2.615087945,0.44
1997-Q3,482.4,160.8,4.83,0.56,5.53,$4.88,13.3,1.2,8647.179,2785,7135.3,8291.5,974.1,201.04,2.615087945,0.44
1997-Q4,485,161.67,4.37,0.07,5.51,$5.15,13.3,1.4,8793.083,2822.4,7273,8413.6,968.3,203.64,2.615087945,0.44
1998-Q1,486,162,5.07,0.57,5.52,$5.15,12.7,0.4,8897.873,2809.4,7434.6,8590.7,963,206.68,2.738497949,0.439
1998-Q2,487.6,162.53,4.33,0.48,5.5,$5.15,12.7,1,9044.608,2837.5,7561.1,8708.8,947.3,208.55,2.738497949,0.439
1998-Q3,490.1,163.37,4.53,0.36,5.53,$5.15,12.7,1.6,9207.889,2866.2,7668.1,8796.5,935.3,211.46,2.738497949,0.439
1998-Q4,492.4,164.13,4.1,0.18,4.86,$5.15,12.7,1.1,9321.823,2909.2,7762.9,8866.2,966.3,213.96,2.738497949,0.439
1999-Q1,494.2,164.73,4.63,0.66,4.73,$5.15,11.9,1.3,9480.569,2931.9,7850.9,8946.3,962.4,216.21,2.624997267,0.441
1999-Q2,497.9,165.97,4.2,0.73,4.75,$5.15,11.9,1.8,9572.332,2960.6,7920.4,8966.5,973.5,219.11,2.624997267,0.441
1999-Q3,501.6,167.2,4.27,1.02,5.09,$5.15,11.9,1.5,9697.585,3003.4,8028.8,9027.7,1003.2,222.2,2.624997267,0.441
1999-Q4,505.3,168.43,3.77,0.24,5.31,$5.15,11.9,2.1,9904.77,3087.4,8207.3,9163.2,1032,224.5,2.624997267,0.441
2000-Q1,510.3,170.1,4.4,1.71,5.68,$5.15,11.3,2.8,10180.102,3075.7,8457.2,9338.7,1054.2,228.78,2.850034799,0.442
2000-Q2,514.3,171.43,3.87,0.7,6.27,$5.15,11.3,2.4,10298.227,3132.5,8591.8,9442,1092.5,232.51,2.850034799,0.442
2000-Q3,519,173,4.03,0.75,6.52,$5.15,11.3,2.5,10439.845,3152.8,8741,9551.6,1124.3,236.74,2.850034799,0.442
2000-Q4,522.7,174.23,3.67,0.17,6.47,$5.15,11.3,2.1,10477.14,3207.3,8820.4,9585.7,1114.1,240.39,2.850034799,0.442
2001-Q1,527.7,175.9,4.6,1.26,5.59,$5.15,11.7,2.6,10666.201,3280.7,8984,9672.6,1095.1,246.32,2.549268723,0.446
2001-Q2,531.4,177.13,4.33,1.02,4.33,$5.15,11.7,2.7,10716.068,3358.6,9013.6,9655.7,1052.6,250.45,2.549268723,0.446
2001-Q3,532.9,177.63,4.77,0.17,3.5,$5.15,11.7,1.3,10709.235,3375.6,9000.8,9878.5,996.4,254.33,2.549268723,0.446
2001-Q4,532.5,177.5,5.23,-0.9,2.13,$5.15,11.7,1.4,10688.303,3434.7,9024,9753.7,954.5,257.48,2.549268723,0.446
2002-Q1,534.2,178.07,6.17,1.19,1.73,$5.15,12.1,1.1,10844.582,3506.5,9057.8,9973.5,970.7,261.18,2.528623525,0.443
2002-Q2,538.4,179.47,5.73,0.62,1.75,$5.15,12.1,1.6,10975.354,3554.2,9148.8,10041.1,1003.9,265.62,2.528623525,0.443
2002-Q3,541.3,180.43,5.67,0.61,1.74,$5.15,12.1,1.7,11038.793,3597,9174.4,10032.3,1017.2,270.89,2.528623525,0.443
2002-Q4,544.5,181.5,5.53,-0.05,1.44,$5.15,12.1,2.3,11177.588,3683.2,9254.8,10091.9,1003.2,274.73,2.528623525,0.443
2003-Q1,550.1,183.37,6.37,1.81,1.25,$5.15,12.5,2,11245.768,3748,9315.1,10115.6,1008.2,278.08,2.543339695,0.445
2003-Q2,549.2,183.07,6.03,-0.27,1.25,$5.15,12.5,1.2,11376.433,3806.8,9417.8,10238.9,1007.9,281.46,2.543339695,0.445
2003-Q3,553.3,184.43,6.03,0.82,1.02,$5.15,12.5,2.2,11553.574,3837.3,9542.3,10411.9,1038.1,285.77,2.543339695,0.445
2003-Q4,555.4,185.13,5.53,-0.49,1,$5.15,12.5,2.2,11711.862,3872.2,9675.1,10439.3,1090.5,293.86,2.543339695,0.445
2004-Q1,560.1,186.7,6.1,1.67,1,$5.15,12.7,3.1,11900.665,3951.6,9777.9,10487.4,1137.7,298.44,2.644757552,0.447
2004-Q2,564.5,188.17,5.5,1.23,1.01,$5.15,12.7,3.3,12147.017,3981.5,9953.6,10607.6,1167.8,305.68,2.644757552,0.447
2004-Q3,568.1,189.37,5.4,0.1,1.43,$5.15,12.7,2.6,12366.901,4049.5,10094.7,10676.9,1182.7,317.38,2.644757552,0.447
2004-Q4,574.2,191.4,5.13,0.21,1.95,$5.15,12.7,3.1,12528.634,4095.1,10314.1,10811.7,1222.3,324.14,2.644757552,0.447
2005-Q1,577.1,192.37,5.63,1.57,2.47,$5.15,12.6,3.1,12759.191,4195.6,10338.5,10684.9,1264.8,331.6,2.655403439,0.45
2005-Q2,581,193.67,5,0.62,2.94,$5.15,12.6,2.9,12954.348,4239.7,10505.2,10786.5,1296,342.19,2.655403439,0.45
2005-Q3,589.8,196.6,4.97,2.19,3.46,$5.15,12.6,3.8,13168.114,4364.3,10661.7,10818.3,1307.1,352.53,2.655403439,0.45
2005-Q4,595.3,198.43,4.67,-1,3.98,$5.15,12.6,3.2,13485.337,4414.4,10887.6,10956.9,1353,360.52,2.655403439,0.45
2006-Q1,598.4,199.47,5,1.51,4.46,$5.15,12.3,2.8,13811.601,4453.6,11189.5,11170.1,1413,366.25,2.707578221,0.452
2006-Q2,603.8,201.27,4.57,1.55,4.91,$5.15,12.3,3.4,13952.617,4516.6,11324,11197.4,1460,369.98,2.707578221,0.452
2006-Q3,609.5,203.17,4.67,0.01,5.25,$5.15,12.3,3,14112.574,4564,11429.4,11226.4,1477.8,373.04,2.707578221,0.452
2006-Q4,607,202.33,4.23,-0.54,5.25,$5.15,12.3,1.5,14213.273,4545.7,11583.9,11374.5,1539.6,376.84,2.707578221,0.452
2007-Q1,612.95,204.32,4.8,1.76,5.26,$5.15,12.5,4.2,14345.737,4752.2,11836.7,11471.4,1577.1,378.22,2.899921861,0.444
2007-Q2,619.89,206.63,4.43,1.45,5.25,$5.15,12.5,2.5,14476.145,4801.9,11977,11500.8,1622.1,377.96,2.899921861,0.444
2007-Q3,623.82,207.94,4.67,0.07,5.07,$5.85,12.5,1.7,14437.38,4849.3,12048.4,11511,1683.7,373.73,2.899921861,0.444
2007-Q4,631.47,210.49,4.57,0.73,4.5,$5.85,12.5,1.8,14477.511,4931.2,12169.1,11518.8,1760.5,372.56,2.899921861,0.444
2008-Q1,638.31,212.77,5.27,1.66,3.18,$5.85,13.2,1.8,14535.432,5000.2,12315,11550.8,1811,369.86,3.078841375,0.45
2008-Q2,646.61,215.54,5.23,2.46,2.09,$5.85,13.2,1.6,14582.504,5365.1,12642.6,11762.2,1909.7,360.54,3.078841375,0.45
2008-Q3,656.58,218.86,6.03,-0.01,1.94,$6.55,13.2,3.1,14632.055,5258.6,12467.2,11515,1921.8,349.2,3.078841375,0.45
2008-Q4,641.55,213.85,6.57,-3.96,0.51,$6.55,13.2,1,14369.984,5419,12344,11615.3,1705.7,345.99,3.078841375,0.45
2009-Q1,637.13,212.38,8.8,1.18,0.18,$6.55,14.3,0.3,14133.047,5486.3,11989.6,11565.5,1514.3,348.53,3.114589459,0.456
2009-Q2,640.52,213.51,9.13,1.4,0.18,$6.55,14.3,-0.4,14172.733,5682.2,12083.2,11689.8,1518.3,339.32,3.114589459,0.456
2009-Q3,646.03,215.34,9.6,0.12,0.16,$7.25,14.3,0.2,14244.058,5655.3,12038.3,11557.6,1591.1,330.35,3.114589459,0.456
2009-Q4,651.09,217.03,9.53,-0.01,0.12,$7.25,14.3,1.5,14477.243,5713.2,12125.3,11554.8,1704.3,327.89,3.114589459,0.456
2010-Q1,652.12,217.37,10.4,0.77,0.13,$7.25,15.1,0.9,14584.236,5820.4,12275.9,11619.8,1746.9,323.96,3.227519363,0.456
2010-Q2,651.89,217.3,9.47,0.15,0.19,$7.25,15.1,1.8,14820.85,5862.9,12492.6,11811.2,1810,321.06,3.227519363,0.456
2010-Q3,653.8,217.93,9.47,0.22,0.19,$7.25,15.1,1.4,15097.635,5811.1,12636,11895.3,1865.6,324.1,3.227519363,0.456
2010-Q4,659.1,219.7,9.13,0.33,0.19,$7.25,15.1,2.2,15221.344,5839.4,12801.9,11962,1962.6,321.75,3.227519363,0.456
2011-Q1,666.13,222.04,9.5,1.95,0.16,$7.25,15,,15311.692,,13158.2,12083.9,2030.3,312.9,3.392275289,0.463
2011-Q2,673.71,224.57,8.9,1,0.09,$7.25,15,,15528.517,,13267.3,12057.6,2105.1,307.43,3.392275289,0.463
2011-Q3,678.1,226.03,9.07,0.52,0.08,$7.25,15,,15689.155,,13402,12110.2,2138.8,309.73,3.392275289,0.463
2011-Q4,681.14,227.05,8.33,-0.54,0.07,$7.25,15,,15853.949,,13479.5,12147.9,2137.8,311.09,3.392275289,0.463
2012-Q1,684.98,228.33,8.63,1.64,0.1,$7.25,15,,16287.864,,13785.7,12375.3,2164.6,307.81,3.376982227,0.463
2012-Q2,686.42,228.81,8,0.03,0.15,$7.25,15,,16412.965,,13946.8,12487.8,2192.1,306.54,3.376982227,0.463
2012-Q3,689.52,229.84,8.13,0.85,0.14,$7.25,15,,16405.78,,13915.4,12398.4,2201.8,310.51,3.376982227,0.463
2012-Q4,694.11,231.37,7.5,-0.78,0.16,$7.25,15,,16646.793,,14392.6,12741.9,2206.6,313.02,3.376982227,0.463
2013-Q1,696.9,232.3,8.07,1.38,0.14,$7.25,14.5,,16731.616,,14001.2,12231.9,2239.2,314.64,3.354151384,0.467
2013-Q2,696.14,232.05,7.4,0.32,0.12,$7.25,14.5,,16880.295,,14135,12323,2250.7,319.56,3.354151384,0.467
2013-Q3,699.9,233.3,7.33,0.28,0.08,$7.25,14.5,,16974.269,,14232,12376.3,2269.4,324.53,3.354151384,0.467
2013-Q4,702.49,234.16,6.7,-0.47,0.09,$7.25,14.5,,17194.479,,14356.2,12425.2,2334.4,327.26,3.354151384,0.467
2014-Q1,706.86,235.62,6.93,1.38,0.07,$7.25,14.8,,17389.765,,14660.2,12614.4,2338.3,330.16,3.359895785,0.464
2014-Q2,710.62,236.87,6.1,0.87,0.09,$7.25,14.8,,17713.613,,14892.5,12765.9,2386.1,336.46,3.359895785,0.464
2014-Q3,712.44,237.48,6.17,-0.13,0.09,$7.25,14.8,,18006.642,,15114.4,12906.9,2388.4,341.32,3.359895785,0.464
2014-Q4,710.67,236.89,5.47,-1.36,0.1,$7.25,14.8,,18173.001,,15300.2,13065.2,2371.4,344.13,3.359895785,0.464
2015-Q1,705.96,235.32,5.83,0.56,0.11,$7.25,13.5,,18289.594,,15471.3,13226.6,2286.6,347.56,,0.462
2015-Q2,710.81,236.94,5.3,1.06,0.12,$7.25,13.5,,18454.492,,15681.7,13327.8,2303.2,353.68,,0.462
2015-Q3,713.59,237.86,5.23,-0.29,0.14,$7.25,13.5,,18568.112,,15842.9,13440.4,2259.2,359.16,,0.462
2015-Q4,713.61,237.87,4.8,0.59,0.16,$7.25,13.5,,18584.75,,15882.1,13471.4,2211.2,362.42,,0.462
2016-Q1,713.34,237.78,5.2,0.68,0.36,$7.25,12.7,,18637.107,,15946.5,13562.3,2165.6,365.78,,0.464
2016-Q2,718.46,239.49,4.77,1.2,0.37,$7.25,12.7,,18720.944,,16031.6,13541.5,2206.6,372.95,,0.464
2016-Q3,721.8,240.6,4.97,0.17,0.4,$7.25,12.7,,18884.809,,16170.6,13592.9,2252.5,379.67,,0.464
2016-Q4,726.49,242.16,4.53,-0.01,0.45,$7.25,12.7,,19093.587,,16351.8,13685.4,2245.6,383.16,,0.464
2017-Q1,731.49,243.83,4.87,0.97,0.7,$7.25,12.3,,19357.412,,16604.4,13835.3,2294.1,386.71,,0.463
2017-Q2,732.2,244.07,4.23,0.48,0.95,$7.25,12.3,,19545.874,,16721.2,13909.8,2316.3,396.7,,0.463
2017-Q3,736.11,245.37,4.4,0.76,1.15,$7.25,12.3,,19702.477,,16895.1,13986.2,2358.3,403.46,,0.463
2017-Q4,741.82,247.27,3.9,-0.12,1.2,$7.25,12.3,,19908.473,,17103.1,14065.9,2432,407.67,,0.463
2018-Q1,747.75,249.25,4.33,1.22,1.45,$7.25,,,20200.96,,17319.2,14219.8,2477.4,413.53,,
2018-Q2,751.74,250.58,3.83,0.98,1.74,$7.25,,,20410.533,,17466.7,14282,2568.7,423.91,,
2018-Q3,755.49,251.83,3.87,0.19,1.92,$7.25,,,20716.493,,17657.3,14374.8,2538.6,430.76,,
2018-Q4,758.28,252.76,3.57,-0.47,2.22,$7.25,,,,,17882.4,14523.6,2538.9,432.14,,
2019,,,,,,,,,,,,,,,,
,,,,,,,,,,,,,,,,
,,,,,,,,,,,,,,,,
,,,,,,,,,,,,,,,,
,,,,,,,,,,,,,,,,
,,,,,,,,,,,,,,,,
,,,,,,,,,,,,,,,,
,,,,,,,,,,,,,,,,
,,,,,,,,,,,,,,,,
,,,,,,,,,,,,,,,,
,,,,,,,,,,,,,,,,
,,,,,,,,,,,,,,,,
,,,,,,,,,,,,,,,,
,,,,,,,,,,,,,,,,
,,,,,,,,,,,,,,,,
,,,,,,,,,,,,,,,,
,,,,,,,,,,,,,,,,
,,,,,,,,,,,,,,,,
,,,,,,,,,,,,,,,,
,,,,,,,,,,,,,,,,
,,,,,,,,,,,,,,,,
,,,,,,,,,,,,,,,,
,,,,,,,,,,,,,,,,
,,,,,,,,,,,,,,,,
,,,,,,,,,,,,,,,,
,,,,,,,,,,,,,,,,
,,,,,,,,,,,,,,,,
,,,,,,,,,,,,,,,,
,,,,,,,,,,,,,,,,
,,,,,,,,,,,,,,,,
,,,,,,,,,,,,,,,,
,,,,,,,,,,,,,,,,
,,,,,,,,,,,,,,,,
,,,,,,,,,,,,,,,,
,,,,,,,,,,,,,,,,
,,,,,,,,,,,,,,,,
,,,,,,,,,,,,,,,,
,,,,,,,,,,,,,,,,
,,,,,,,,,,,,,,,,
,,,,,,,,,,,,,,,,
,,,,,,,,,,,,,,,,
,,,,,,,,,,,,,,,,
,,,,,,,,,,,,,,,,
,,,,,,,,,,,,,,,,
,,,,,,,,,,,,,,,,
,,,,,,,,,,,,,,,,
,,,,,,,,,,,,,,,,
,,,,,,,,,,,,,,,,
,,,,,,,,,,,,,,,,
,,,,,,,,,,,,,,,,
,,,,,,,,,,,,,,,,
,,,,,,,,,,,,,,,,
,,,,,,,,,,,,,,,,
,,,,,,,,,,,,,,,,
,,,,,,,,,,,,,,,,
,,,,,,,,,,,,,,,,
,,,,,,,,,,,,,,,,
,,,,,,,,,,,,,,,,
,,,,,,,,,,,,,,,,
,,,,,,,,,,,,,,,,
,,,,,,,,,,,,,,,,
,,,,,,,,,,,,,,,,
,,,,,,,,,,,,,,,,
,,,,,,,,,,,,,,,,
,,,,,,,,,,,,,,,,
,,,,,,,,,,,,,,,,
,,,,,,,,,,,,,,,,
,,,,,,,,,,,,,,,,
,,,,,,,,,,,,,,,,
,,,,,,,,,,,,,,,,
,,,,,,,,,,,,,,,,
,,,,,,,,,,,,,,,,
,,,,,,,,,,,,,,,,
,,,,,,,,,,,,,,,,
,,,,,,,,,,,,,,,,
,,,,,,,,,,,,,,,,
,,,,,,,,,,,,,,,,
,,,,,,,,,,,,,,,,
,,,,,,,,,,,,,,,,
,,,,,,,,,,,,,,,,
,,,,,,,,,,,,,,,,
,,,,,,,,,,,,,,,,
,,,,,,,,,,,,,,,,
,,,,,,,,,,,,,,,,
,,,,,,,,,,,,,,,,
,,,,,,,,,,,,,,,,
,,,,,,,,,,,,,,,,
,,,,,,,,,,,,,,,,
,,,,,,,,,,,,,,,,
,,,,,,,,,,,,,,,,
,,,,,,,,,,,,,,,,
,,,,,,,,,,,,,,,,
,,,,,,,,,,,,,,,,
,,,,,,,,,,,,,,,,
,,,,,,,,,,,,,,,,
,,,,,,,,,,,,,,,,
,,,,,,,,,,,,,,,,
,,,,,,,,,,,,,,,,
,,,,,,,,,,,,,,,,
,,,,,,,,,,,,,,,,
,,,,,,,,,,,,,,,,
,,,,,,,,,,,,,,,,
,,,,,,,,,,,,,,,,
,,,,,,,,,,,,,,,,
,,,,,,,,,,,,,,,,
,,,,,,,,,,,,,,,,
,,,,,,,,,,,,,,,,
,,,,,,,,,,,,,,,,
,,,,,,,,,,,,,,,,
,,,,,,,,,,,,,,,,
,,,,,,,,,,,,,,,,
,,,,,,,,,,,,,,,,
,,,,,,,,,,,,,,,,
,,,,,,,,,,,,,,,,
,,,,,,,,,,,,,,,,
,,,,,,,,,,,,,,,,
,,,,,,,,,,,,,,,,
,,,,,,,,,,,,,,,,
,,,,,,,,,,,,,,,,
,,,,,,,,,,,,,,,,
,,,,,,,,,,,,,,,,
,,,,,,,,,,,,,,,,
,,,,,,,,,,,,,,,,
,,,,,,,,,,,,,,,,
,,,,,,,,,,,,,,,,
,,,,,,,,,,,,,,,,
,,,,,,,,,,,,,,,,
,,,,,,,,,,,,,,,,
,,,,,,,,,,,,,,,,
,,,,,,,,,,,,,,,,
,,,,,,,,,,,,,,,,
,,,,,,,,,,,,,,,,
,,,,,,,,,,,,,,,,
,,,,,,,,,,,,,,,,
,,,,,,,,,,,,,,,,
,,,,,,,,,,,,,,,,
,,,,,,,,,,,,,,,,
,,,,,,,,,,,,,,,,
,,,,,,,,,,,,,,,,
,,,,,,,,,,,,,,,,
,,,,,,,,,,,,,,,,
,,,,,,,,,,,,,,,,
,,,,,,,,,,,,,,,,
,,,,,,,,,,,,,,,,
,,,,,,,,,,,,,,,,
,,,,,,,,,,,,,,,,
,,,,,,,,,,,,,,,,
,,,,,,,,,,,,,,,,
,,,,,,,,,,,,,,,,
,,,,,,,,,,,,,,,,
,,,,,,,,,,,,,,,,
,,,,,,,,,,,,,,,,
,,,,,,,,,,,,,,,,
,,,,,,,,,,,,,,,,
,,,,,,,,,,,,,,,,
,,,,,,,,,,,,,,,,
,,,,,,,,,,,,,,,,
,,,,,,,,,,,,,,,,
,,,,,,,,,,,,,,,,
,,,,,,,,,,,,,,,,
,,,,,,,,,,,,,,,,
,,,,,,,,,,,,,,,,
,,,,,,,,,,,,,,,,
,,,,,,,,,,,,,,,,
,,,,,,,,,,,,,,,,
,,,,,,,,,,,,,,,,
,,,,,,,,,,,,,,,,
,,,,,,,,,,,,,,,,
,,,,,,,,,,,,,,,,
,,,,,,,,,,,,,,,,
,,,,,,,,,,,,,,,,
,,,,,,,,,,,,,,,,
,,,,,,,,,,,,,,,,
,,,,,,,,,,,,,,,,
,,,,,,,,,,,,,,,,
,,,,,,,,,,,,,,,,
,,,,,,,,,,,,,,,,
,,,,,,,,,,,,,,,,
,,,,,,,,,,,,,,,,
,,,,,,,,,,,,,,,,
,,,,,,,,,,,,,,,,
,,,,,,,,,,,,,,,,
,,,,,,,,,,,,,,,,
,,,,,,,,,,,,,,,,
,,,,,,,,,,,,,,,,
,,,,,,,,,,,,,,,,
,,,,,,,,,,,,,,,,
,,,,,,,,,,,,,,,,
,,,,,,,,,,,,,,,,
,,,,,,,,,,,,,,,,
,,,,,,,,,,,,,,,,
,,,,,,,,,,,,,,,,
,,,,,,,,,,,,,,,,
,,,,,,,,,,,,,,,,
,,,,,,,,,,,,,,,,
,,,,,,,,,,,,,,,,
,,,,,,,,,,,,,,,,
,,,,,,,,,,,,,,,,
,,,,,,,,,,,,,,,,
,,,,,,,,,,,,,,,,
,,,,,,,,,,,,,,,,
,,,,,,,,,,,,,,,,
,,,,,,,,,,,,,,,,
,,,,,,,,,,,,,,,,
,,,,,,,,,,,,,,,,
,,,,,,,,,,,,,,,,
,,,,,,,,,,,,,,,,
,,,,,,,,,,,,,,,,
,,,,,,,,,,,,,,,,
,,,,,,,,,,,,,,,,
,,,,,,,,,,,,,,,,
,,,,,,,,,,,,,,,,
,,,,,,,,,,,,,,,,
,,,,,,,,,,,,,,,,
,,,,,,,,,,,,,,,,
,,,,,,,,,,,,,,,,
,,,,,,,,,,,,,,,,
,,,,,,,,,,,,,,,,
,,,,,,,,,,,,,,,,
,,,,,,,,,,,,,,,,
,,,,,,,,,,,,,,,,
,,,,,,,,,,,,,,,,
,,,,,,,,,,,,,,,,
,,,,,,,,,,,,,,,,
,,,,,,,,,,,,,,,,
,,,,,,,,,,,,,,,,
,,,,,,,,,,,,,,,,
,,,,,,,,,,,,,,,,
,,,,,,,,,,,,,,,,
,,,,,,,,,,,,,,,,
,,,,,,,,,,,,,,,,
,,,,,,,,,,,,,,,,
,,,,,,,,,,,,,,,,
,,,,,,,,,,,,,,,,
,,,,,,,,,,,,,,,,
,,,,,,,,,,,,,,,,
,,,,,,,,,,,,,,,,
,,,,,,,,,,,,,,,,
,,,,,,,,,,,,,,,,
,,,,,,,,,,,,,,,,
,,,,,,,,,,,,,,,,
,,,,,,,,,,,,,,,,
,,,,,,,,,,,,,,,,
,,,,,,,,,,,,,,,,
,,,,,,,,,,,,,,,,
,,,,,,,,,,,,,,,,
,,,,,,,,,,,,,,,,
,,,,,,,,,,,,,,,,
,,,,,,,,,,,,,,,,
,,,,,,,,,,,,,,,,
,,,,,,,,,,,,,,,,
,,,,,,,,,,,,,,,,
,,,,,,,,,,,,,,,,
,,,,,,,,,,,,,,,,
,,,,,,,,,,,,,,,,
,,,,,,,,,,,,,,,,
,,,,,,,,,,,,,,,,
,,,,,,,,,,,,,,,,
,,,,,,,,,,,,,,,,
,,,,,,,,,,,,,,,,
,,,,,,,,,,,,,,,,
,,,,,,,,,,,,,,,,
,,,,,,,,,,,,,,,,
,,,,,,,,,,,,,,,,
,,,,,,,,,,,,,,,,
,,,,,,,,,,,,,,,,
,,,,,,,,,,,,,,,,
,,,,,,,,,,,,,,,,
,,,,,,,,,,,,,,,,
,,,,,,,,,,,,,,,,
,,,,,,,,,,,,,,,,
,,,,,,,,,,,,,,,,
,,,,,,,,,,,,,,,,
,,,,,,,,,,,,,,,,
,,,,,,,,,,,,,,,,
,,,,,,,,,,,,,,,,
,,,,,,,,,,,,,,,,
,,,,,,,,,,,,,,,,
,,,,,,,,,,,,,,,,
,,,,,,,,,,,,,,,,
,,,,,,,,,,,,,,,,
,,,,,,,,,,,,,,,,
,,,,,,,,,,,,,,,,
,,,,,,,,,,,,,,,,
,,,,,,,,,,,,,,,,
,,,,,,,,,,,,,,,,
,,,,,,,,,,,,,,,,
,,,,,,,,,,,,,,,,
,,,,,,,,,,,,,,,,
,,,,,,,,,,,,,,,,
,,,,,,,,,,,,,,,,
,,,,,,,,,,,,,,,,
,,,,,,,,,,,,,,,,
,,,,,,,,,,,,,,,,
,,,,,,,,,,,,,,,,
,,,,,,,,,,,,,,,,
,,,,,,,,,,,,,,,,
,,,,,,,,,,,,,,,,
,,,,,,,,,,,,,,,,
,,,,,,,,,,,,,,,,
,,,,,,,,,,,,,,,,
,,,,,,,,,,,,,,,,
,,,,,,,,,,,,,,,,
,,,,,,,,,,,,,,,,
,,,,,,,,,,,,,,,,
,,,,,,,,,,,,,,,,
,,,,,,,,,,,,,,,,
,,,,,,,,,,,,,,,,
,,,,,,,,,,,,,,,,
,,,,,,,,,,,,,,,,
,,,,,,,,,,,,,,,,
,,,,,,,,,,,,,,,,
,,,,,,,,,,,,,,,,
,,,,,,,,,,,,,,,,
,,,,,,,,,,,,,,,,
,,,,,,,,,,,,,,,,
,,,,,,,,,,,,,,,,
,,,,,,,,,,,,,,,,
,,,,,,,,,,,,,,,,
,,,,,,,,,,,,,,,,
,,,,,,,,,,,,,,,,
,,,,,,,,,,,,,,,,
,,,,,,,,,,,,,,,,
,,,,,,,,,,,,,,,,
,,,,,,,,,,,,,,,,
,,,,,,,,,,,,,,,,
,,,,,,,,,,,,,,,,
,,,,,,,,,,,,,,,,
,,,,,,,,,,,,,,,,
,,,,,,,,,,,,,,,,
,,,,,,,,,,,,,,,,
,,,,,,,,,,,,,,,,
,,,,,,,,,,,,,,,,
,,,,,,,,,,,,,,,,
,,,,,,,,,,,,,,,,
,,,,,,,,,,,,,,,,
,,,,,,,,,,,,,,,,
,,,,,,,,,,,,,,,,
,,,,,,,,,,,,,,,,
,,,,,,,,,,,,,,,,
,,,,,,,,,,,,,,,,
,,,,,,,,,,,,,,,,
,,,,,,,,,,,,,,,,
,,,,,,,,,,,,,,,,
,,,,,,,,,,,,,,,,
,,,,,,,,,,,,,,,,
,,,,,,,,,,,,,,,,
,,,,,,,,,,,,,,,,
,,,,,,,,,,,,,,,,
,,,,,,,,,,,,,,,,
,,,,,,,,,,,,,,,,
,,,,,,,,,,,,,,,,
,,,,,,,,,,,,,,,,
,,,,,,,,,,,,,,,,
,,,,,,,,,,,,,,,,
,,,,,,,,,,,,,,,,
,,,,,,,,,,,,,,,,
,,,,,,,,,,,,,,,,
,,,,,,,,,,,,,,,,
,,,,,,,,,,,,,,,,
,,,,,,,,,,,,,,,,
,,,,,,,,,,,,,,,,
,,,,,,,,,,,,,,,,
,,,,,,,,,,,,,,,,
,,,,,,,,,,,,,,,,
,,,,,,,,,,,,,,,,
,,,,,,,,,,,,,,,,
,,,,,,,,,,,,,,,,
,,,,,,,,,,,,,,,,
,,,,,,,,,,,,,,,,
,,,,,,,,,,,,,,,,
,,,,,,,,,,,,,,,,
,,,,,,,,,,,,,,,,
,,,,,,,,,,,,,,,,
,,,,,,,,,,,,,,,,
,,,,,,,,,,,,,,,,
,,,,,,,,,,,,,,,,
,,,,,,,,,,,,,,,,
,,,,,,,,,,,,,,,,
,,,,,,,,,,,,,,,,
,,,,,,,,,,,,,,,,
,,,,,,,,,,,,,,,,
,,,,,,,,,,,,,,,,
,,,,,,,,,,,,,,,,
,,,,,,,,,,,,,,,,
,,,,,,,,,,,,,,,,
,,,,,,,,,,,,,,,,
,,,,,,,,,,,,,,,,
,,,,,,,,,,,,,,,,
,,,,,,,,,,,,,,,,
,,,,,,,,,,,,,,,,
,,,,,,,,,,,,,,,,
,,,,,,,,,,,,,,,,
,,,,,,,,,,,,,,,,
,,,,,,,,,,,,,,,,
,,,,,,,,,,,,,,,,
,,,,,,,,,,,,,,,,
,,,,,,,,,,,,,,,,
,,,,,,,,,,,,,,,,
,,,,,,,,,,,,,,,,
,,,,,,,,,,,,,,,,
,,,,,,,,,,,,,,,,
,,,,,,,,,,,,,,,,
,,,,,,,,,,,,,,,,
,,,,,,,,,,,,,,,,
,,,,,,,,,,,,,,,,
,,,,,,,,,,,,,,,,
,,,,,,,,,,,,,,,,
,,,,,,,,,,,,,,,,
,,,,,,,,,,,,,,,,
,,,,,,,,,,,,,,,,
,,,,,,,,,,,,,,,,
,,,,,,,,,,,,,,,,
,,,,,,,,,,,,,,,,
,,,,,,,,,,,,,,,,
,,,,,,,,,,,,,,,,
,,,,,,,,,,,,,,,,
,,,,,,,,,,,,,,,,
,,,,,,,,,,,,,,,,
,,,,,,,,,,,,,,,,
,,,,,,,,,,,,,,,,
,,,,,,,,,,,,,,,,
,,,,,,,,,,,,,,,,
,,,,,,,,,,,,,,,,
,,,,,,,,,,,,,,,,
,,,,,,,,,,,,,,,,
,,,,,,,,,,,,,,,,
,,,,,,,,,,,,,,,,
,,,,,,,,,,,,,,,,
,,,,,,,,,,,,,,,,
,,,,,,,,,,,,,,,,
,,,,,,,,,,,,,,,,
,,,,,,,,,,,,,,,,
,,,,,,,,,,,,,,,,
,,,,,,,,,,,,,,,,
,,,,,,,,,,,,,,,,
,,,,,,,,,,,,,,,,
,,,,,,,,,,,,,,,,
,,,,,,,,,,,,,,,,
,,,,,,,,,,,,,,,,
,,,,,,,,,,,,,,,,
,,,,,,,,,,,,,,,,
,,,,,,,,,,,,,,,,
,,,,,,,,,,,,,,,,
,,,,,,,,,,,,,,,,
,,,,,,,,,,,,,,,,
,,,,,,,,,,,,,,,,
,,,,,,,,,,,,,,,,
,,,,,,,,,,,,,,,,
,,,,,,,,,,,,,,,,
,,,,,,,,,,,,,,,,
,,,,,,,,,,,,,,,,
,,,,,,,,,,,,,,,,
,,,,,,,,,,,,,,,,
,,,,,,,,,,,,,,,,
,,,,,,,,,,,,,,,,
,,,,,,,,,,,,,,,,
,,,,,,,,,,,,,,,,
,,,,,,,,,,,,,,,,
,,,,,,,,,,,,,,,,
,,,,,,,,,,,,,,,,
,,,,,,,,,,,,,,,,
,,,,,,,,,,,,,,,,
,,,,,,,,,,,,,,,,
,,,,,,,,,,,,,,,,
,,,,,,,,,,,,,,,,
,,,,,,,,,,,,,,,,
,,,,,,,,,,,,,,,,
,,,,,,,,,,,,,,,,
,,,,,,,,,,,,,,,,
,,,,,,,,,,,,,,,,
,,,,,,,,,,,,,,,,
,,,,,,,,,,,,,,,,
,,,,,,,,,,,,,,,,
,,,,,,,,,,,,,,,,
,,,,,,,,,,,,,,,,
,,,,,,,,,,,,,,,,
,,,,,,,,,,,,,,,,
,,,,,,,,,,,,,,,,
,,,,,,,,,,,,,,,,
,,,,,,,,,,,,,,,,
,,,,,,,,,,,,,,,,
,,,,,,,,,,,,,,,,
,,,,,,,,,,,,,,,,
,,,,,,,,,,,,,,,,
,,,,,,,,,,,,,,,,
,,,,,,,,,,,,,,,,
,,,,,,,,,,,,,,,,
,,,,,,,,,,,,,,,,
,,,,,,,,,,,,,,,,
,,,,,,,,,,,,,,,,
,,,,,,,,,,,,,,,,
,,,,,,,,,,,,,,,,
,,,,,,,,,,,,,,,,
,,,,,,,,,,,,,,,,
,,,,,,,,,,,,,,,,
,,,,,,,,,,,,,,,,
,,,,,,,,,,,,,,,,
,,,,,,,,,,,,,,,,
,,,,,,,,,,,,,,,,
,,,,,,,,,,,,,,,,
,,,,,,,,,,,,,,,,
,,,,,,,,,,,,,,,,
,,,,,,,,,,,,,,,,
,,,,,,,,,,,,,,,,
,,,,,,,,,,,,,,,,
,,,,,,,,,,,,,,,,
,,,,,,,,,,,,,,,,
,,,,,,,,,,,,,,,,
,,,,,,,,,,,,,,,,
,,,,,,,,,,,,,,,,
,,,,,,,,,,,,,,,,
,,,,,,,,,,,,,,,,
,,,,,,,,,,,,,,,,
,,,,,,,,,,,,,,,,
,,,,,,,,,,,,,,,,
,,,,,,,,,,,,,,,,
,,,,,,,,,,,,,,,,
,,,,,,,,,,,,,,,,
,,,,,,,,,,,,,,,,
,,,,,,,,,,,,,,,,
,,,,,,,,,,,,,,,,
,,,,,,,,,,,,,,,,
,,,,,,,,,,,,,,,,
,,,,,,,,,,,,,,,,
,,,,,,,,,,,,,,,,
,,,,,,,,,,,,,,,,
,,,,,,,,,,,,,,,,
,,,,,,,,,,,,,,,,
,,,,,,,,,,,,,,,,
,,,,,,,,,,,,,,,,
,,,,,,,,,,,,,,,,
,,,,,,,,,,,,,,,,
,,,,,,,,,,,,,,,,
,,,,,,,,,,,,,,,,
,,,,,,,,,,,,,,,,
,,,,,,,,,,,,,,,,
,,,,,,,,,,,,,,,,
,,,,,,,,,,,,,,,,
,,,,,,,,,,,,,,,,
,,,,,,,,,,,,,,,,
,,,,,,,,,,,,,,,,
,,,,,,,,,,,,,,,,
,,,,,,,,,,,,,,,,
,,,,,,,,,,,,,,,,
,,,,,,,,,,,,,,,,
,,,,,,,,,,,,,,,,
,,,,,,,,,,,,,,,,
,,,,,,,,,,,,,,,,
,,,,,,,,,,,,,,,,
,,,,,,,,,,,,,,,,
,,,,,,,,,,,,,,,,
,,,,,,,,,,,,,,,,
,,,,,,,,,,,,,,,,
,,,,,,,,,,,,,,,,
,,,,,,,,,,,,,,,,
,,,,,,,,,,,,,,,,
,,,,,,,,,,,,,,,,
,,,,,,,,,,,,,,,,
,,,,,,,,,,,,,,,,
,,,,,,,,,,,,,,,,
,,,,,,,,,,,,,,,,
,,,,,,,,,,,,,,,,
,,,,,,,,,,,,,,,,
,,,,,,,,,,,,,,,,
,,,,,,,,,,,,,,,,
,,,,,,,,,,,,,,,,
,,,,,,,,,,,,,,,,
,,,,,,,,,,,,,,,,
,,,,,,,,,,,,,,,,
,,,,,,,,,,,,,,,,
,,,,,,,,,,,,,,,,
,,,,,,,,,,,,,,,,
,,,,,,,,,,,,,,,,
,,,,,,,,,,,,,,,,
,,,,,,,,,,,,,,,,
,,,,,,,,,,,,,,,,
,,,,,,,,,,,,,,,,
,,,,,,,,,,,,,,,,
,,,,,,,,,,,,,,,,
,,,,,,,,,,,,,,,,
,,,,,,,,,,,,,,,,
,,,,,,,,,,,,,,,,
,,,,,,,,,,,,,,,,
,,,,,,,,,,,,,,,,
,,,,,,,,,,,,,,,,
,,,,,,,,,,,,,,,,
,,,,,,,,,,,,,,,,
,,,,,,,,,,,,,,,,
,,,,,,,,,,,,,,,,
,,,,,,,,,,,,,,,,
,,,,,,,,,,,,,,,,
,,,,,,,,,,,,,,,,
,,,,,,,,,,,,,,,,
,,,,,,,,,,,,,,,,
,,,,,,,,,,,,,,,,
,,,,,,,,,,,,,,,,
,,,,,,,,,,,,,,,,
,,,,,,,,,,,,,,,,
,,,,,,,,,,,,,,,,
,,,,,,,,,,,,,,,,
,,,,,,,,,,,,,,,,
,,,,,,,,,,,,,,,,
,,,,,,,,,,,,,,,,
,,,,,,,,,,,,,,,,
,,,,,,,,,,,,,,,,
,,,,,,,,,,,,,,,,
,,,,,,,,,,,,,,,,
,,,,,,,,,,,,,,,,
,,,,,,,,,,,,,,,,
,,,,,,,,,,,,,,,,
,,,,,,,,,,,,,,,,
,,,,,,,,,,,,,,,,
,,,,,,,,,,,,,,,,
,,,,,,,,,,,,,,,,
,,,,,,,,,,,,,,,,
,,,,,,,,,,,,,,,,
,,,,,,,,,,,,,,,,
,,,,,,,,,,,,,,,,
,,,,,,,,,,,,,,,,
,,,,,,,,,,,,,,,,
,,,,,,,,,,,,,,,,
,,,,,,,,,,,,,,,,
,,,,,,,,,,,,,,,,
,,,,,,,,,,,,,,,,
,,,,,,,,,,,,,,,,
,,,,,,,,,,,,,,,,
,,,,,,,,,,,,,,,,
,,,,,,,,,,,,,,,,
,,,,,,,,,,,,,,,,
,,,,,,,,,,,,,,,,
,,,,,,,,,,,,,,,,
,,,,,,,,,,,,,,,,
,,,,,,,,,,,,,,,,
,,,,,,,,,,,,,,,,
,,,,,,,,,,,,,,,,
,,,,,,,,,,,,,,,,
,,,,,,,,,,,,,,,,
,,,,,,,,,,,,,,,,
,,,,,,,,,,,,,,,,
,,,,,,,,,,,,,,,,
,,,,,,,,,,,,,,,,
,,,,,,,,,,,,,,,,
,,,,,,,,,,,,,,,,
,,,,,,,,,,,,,,,,
,,,,,,,,,,,,,,,,
,,,,,,,,,,,,,,,,
,,,,,,,,,,,,,,,,
,,,,,,,,,,,,,,,,
,,,,,,,,,,,,,,,,
,,,,,,,,,,,,,,,,
,,,,,,,,,,,,,,,,
,,,,,,,,,,,,,,,,
,,,,,,,,,,,,,,,,
,,,,,,,,,,,,,,,,
,,,,,,,,,,,,,,,,
,,,,,,,,,,,,,,,,
,,,,,,,,,,,,,,,,
,,,,,,,,,,,,,,,,
,,,,,,,,,,,,,,,,
,,,,,,,,,,,,,,,,
,,,,,,,,,,,,,,,,
,,,,,,,,,,,,,,,,
,,,,,,,,,,,,,,,,
,,,,,,,,,,,,,,,,
,,,,,,,,,,,,,,,,
,,,,,,,,,,,,,,,,
,,,,,,,,,,,,,,,,
,,,,,,,,,,,,,,,,
,,,,,,,,,,,,,,,,
,,,,,,,,,,,,,,,,
,,,,,,,,,,,,,,,,
,,,,,,,,,,,,,,,,
,,,,,,,,,,,,,,,,
,,,,,,,,,,,,,,,,
,,,,,,,,,,,,,,,,
,,,,,,,,,,,,,,,,
,,,,,,,,,,,,,,,,
,,,,,,,,,,,,,,,,
,,,,,,,,,,,,,,,,
,,,,,,,,,,,,,,,,
,,,,,,,,,,,,,,,,
,,,,,,,,,,,,,,,,
,,,,,,,,,,,,,,,,
,,,,,,,,,,,,,,,,
,,,,,,,,,,,,,,,,
,,,,,,,,,,,,,,,,
,,,,,,,,,,,,,,,,
,,,,,,,,,,,,,,,,
,,,,,,,,,,,,,,,,
,,,,,,,,,,,,,,,,
,,,,,,,,,,,,,,,,
,,,,,,,,,,,,,,,,
,,,,,,,,,,,,,,,,
,,,,,,,,,,,,,,,,
,,,,,,,,,,,,,,,,
,,,,,,,,,,,,,,,,
,,,,,,,,,,,,,,,,
,,,,,,,,,,,,,,,,
,,,,,,,,,,,,,,,,
,,,,,,,,,,,,,,,,
,,,,,,,,,,,,,,,,
,,,,,,,,,,,,,,,,
,,,,,,,,,,,,,,,,
,,,,,,,,,,,,,,,,
,,,,,,,,,,,,,,,,
,,,,,,,,,,,,,,,,
,,,,,,,,,,,,,,,,
,,,,,,,,,,,,,,,,
,,,,,,,,,,,,,,,,
,,,,,,,,,,,,,,,,
,,,,,,,,,,,,,,,,
,,,,,,,,,,,,,,,,
,,,,,,,,,,,,,,,,
,,,,,,,,,,,,,,,,
,,,,,,,,,,,,,,,,
,,,,,,,,,,,,,,,,
,,,,,,,,,,,,,,,,
,,,,,,,,,,,,,,,,
,,,,,,,,,,,,,,,,
,,,,,,,,,,,,,,,,
,,,,,,,,,,,,,,,,
,,,,,,,,,,,,,,,,
,,,,,,,,,,,,,,,,
,,,,,,,,,,,,,,,,
,,,,,,,,,,,,,,,,
,,,,,,,,,,,,,,,,
,,,,,,,,,,,,,,,,
,,,,,,,,,,,,,,,,
,,,,,,,,,,,,,,,,
,,,,,,,,,,,,,,,,
,,,,,,,,,,,,,,,,
,,,,,,,,,,,,,,,,
,,,,,,,,,,,,,,,,
,,,,,,,,,,,,,,,,
,,,,,,,,,,,,,,,,
,,,,,,,,,,,,,,,,
,,,,,,,,,,,,,,,,
,,,,,,,,,,,,,,,,
,,,,,,,,,,,,,,,,
,,,,,,,,,,,,,,,,
,,,,,,,,,,,,,,,,
,,,,,,,,,,,,,,,,
,,,,,,,,,,,,,,,,
,,,,,,,,,,,,,,,,
,,,,,,,,,,,,,,,,
,,,,,,,,,,,,,,,,
,,,,,,,,,,,,,,,,
,,,,,,,,,,,,,,,,
,,,,,,,,,,,,,,,,
,,,,,,,,,,,,,,,,
,,,,,,,,,,,,,,,,
,,,,,,,,,,,,,,,,
,,,,,,,,,,,,,,,,
,,,,,,,,,,,,,,,,
,,,,,,,,,,,,,,,,
,,,,,,,,,,,,,,,,
,,,,,,,,,,,,,,,,
,,,,,,,,,,,,,,,,
,,,,,,,,,,,,,,,,
,,,,,,,,,,,,,,,,
,,,,,,,,,,,,,,,,
,,,,,,,,,,,,,,,,
